Dataset2_paired
…
hubData$kWithin <- unname(kWithin_vec[hubData$gene])

hubList <- hubData %>%
  dplyr::filter(!is.na(kWithin)) %>%
  dplyr::group_by(module) %>%
  dplyr::arrange(dplyr::desc(kWithin), .by_group = TRUE) %>%
  dplyr::slice_head(n = 10) %>%
  dplyr::ungroup()

hubList

# A tibble: 140 × 18
   MMmagenta MMblack MMblue MMturquoise   MMred MMbrown MMtan MMpurple  MMcyan
       <dbl>   <dbl>  <dbl>       <dbl>   <dbl>   <dbl> <dbl>    <dbl>   <dbl>
 1     0.425   0.920  0.558     -0.183  -0.0180 -0.0447 0.324   0.131   0.0664
 2     0.421   0.890  0.661     -0.0118  0.194   0.200  0.511   0.116  -0.0597
 3     0.377   0.876  0.674     -0.116   0.0737 -0.0396 0.387   0.104   0.0886
 4     0.542   0.910  0.599      0.0198  0.201   0.151  0.491  -0.0204 -0.0572
 5     0.424   0.888  0.622     -0.0550  0.139   0.249  0.488   0.190  -0.0269
 6     0.543   0.885  0.490      0.0802  0.0507  0.186  0.503  -0.0349 -0.0346
 7     0.401   0.889  0.612     -0.124   0.158   0.0199 0.351   0.130  -0.0185
 8     0.381   0.897  0.523     -0.0747  0.0777  0.0346 0.357   0.0289  0.0530
 9     0.412   0.874  0.548     -0.195  -0.0720 -0.0661 0.287   0.152   0.0818
10     0.356   0.861  0.621     -0.107   0.0112 -0.0356 0.366   0.0891  0.0233
# ℹ 130 more rows
# ℹ 9 more variables: MMgreenyellow <dbl>, MMyellow <dbl>, MMpink <dbl>,
#   MMgreen <dbl>, MMsalmon <dbl>, gene <chr>, GS <dbl>, module <chr>,
#   kWithin <dbl>
…
