Dataset1_naive
…
hubData <- hubData %>%
  left_join(IMConn_df[, c("miRNA", "kWithin")], by = "miRNA")

hubList <- hubData %>%
  group_by(module) %>%
  arrange(desc(kWithin)) %>%
  slice_head(n = 10) %>%
  ungroup()

hubList

# A tibble: 40 × 8
   miRNA        module MMturquoise MMblue MMbrown  MMgrey     GS kWithin
   <chr>        <chr>        <dbl>  <dbl>   <dbl>   <dbl>  <dbl>   <dbl>
 1 ILMN_3168603 blue       0.0672   0.930   0.302 -0.0774 0.181     15.0
 2 ILMN_3167275 blue      -0.0461   0.911   0.261  0.0774 0.0695    14.6
 3 ILMN_3168541 blue      -0.199    0.935   0.409  0.117  0.0584    14.5
 4 ILMN_3167184 blue      -0.0164   0.916   0.215  0.0661 0.0882    14.2
 5 ILMN_3168633 blue       0.0325   0.908   0.227  0.0416 0.146     13.7
 6 ILMN_3168736 blue      -0.145    0.910   0.308  0.0969 0.0287    13.4
 7 ILMN_3168183 blue      -0.0273   0.925   0.353 -0.0624 0.0925    13.4
 8 ILMN_3168848 blue      -0.0341   0.905   0.257  0.0677 0.0844    13.4
 9 ILMN_3166996 blue      -0.0278   0.895   0.292  0.0182 0.0924    12.5
10 ILMN_3167242 blue       0.00604  0.885   0.120  0.0544 0.128     11.8
# ℹ 30 more rows
…
