Datset1_pairaware
…
hubData_rm <- hubData_rm %>%
  left_join(IMConn_rm_df[, c("miRNA", "kWithin")], by = "miRNA")

hubList_rm <- hubData_rm %>%
  group_by(module) %>%
  arrange(desc(kWithin)) %>%
  slice_head(n = 10) %>%
  ungroup()

hubList_rm

# A tibble: 30 × 7
   miRNA        module MMblue MMturquoise   MMgrey    GS kWithin
   <chr>        <chr>   <dbl>       <dbl>    <dbl> <dbl>   <dbl>
 1 ILMN_3168541 blue    0.938     -0.217   0.00402 0.554    25.9
 2 ILMN_3168603 blue    0.922      0.0542 -0.0335  1.72     25.9
 3 ILMN_3168183 blue    0.923     -0.0388 -0.0174  0.878    25.6
 4 ILMN_3167184 blue    0.896     -0.0344  0.0529  0.805    25.6
 5 ILMN_3167275 blue    0.902     -0.0640  0.0368  0.621    25.5
 6 ILMN_3168848 blue    0.899     -0.0549  0.0431  0.740    24.5
 7 ILMN_3168633 blue    0.894      0.0147  0.0812  1.28     24.0
 8 ILMN_3167503 blue    0.914      0.0272 -0.0193  1.78     23.3
 9 ILMN_3167508 blue    0.811      0.0205 -0.0211  1.38     23.2
10 ILMN_3166996 blue    0.888     -0.0381  0.0992  0.861    23.1
# ℹ 20 more rows
…
