Dataset2_naive
…
hubList <- hubData %>%
  group_by(module) %>%
  arrange(desc(kWithin)) %>%
  slice_head(n = 10) %>%
  ungroup()

print(hubList)

# A tibble: 150 × 19
   gene   module MMmagenta MMblack MMblue MMturquoise   MMred MMbrown MMtan
   <chr>  <chr>      <dbl>   <dbl>  <dbl>       <dbl>   <dbl>   <dbl> <dbl>
 1 OR1D2  black      0.425   0.920  0.558     -0.183  -0.0180 -0.0447 0.324
 2 CLCNKB black      0.421   0.890  0.661     -0.0118  0.194   0.200  0.511
 3 OR10P1 black      0.377   0.876  0.674     -0.116   0.0737 -0.0396 0.387
 4 MRGPRE black      0.542   0.910  0.599      0.0198  0.201   0.151  0.491
 5 TBX10  black      0.424   0.888  0.622     -0.0550  0.139   0.249  0.488
 6 PTCH2  black      0.543   0.885  0.490      0.0802  0.0507  0.186  0.503
 7 SSTR3  black      0.401   0.889  0.612     -0.124   0.158   0.0199 0.351
 8 IL17A  black      0.381   0.897  0.523     -0.0747  0.0777  0.0346 0.357
 9 ADAM7  black      0.412   0.874  0.548     -0.195  -0.0720 -0.0661 0.287
10 TRIM49 black      0.356   0.861  0.621     -0.107   0.0112 -0.0356 0.366
# ℹ 140 more rows
# ℹ 10 more variables: MMpurple <dbl>, MMcyan <dbl>, MMgreenyellow <dbl>,
#   MMyellow <dbl>, MMpink <dbl>, MMgreen <dbl>, MMsalmon <dbl>, MMgrey <dbl>,
#   GS <dbl>, kWithin <dbl>
…
