Datset2_pairaware
…
stopifnot(sum(!is.na(hubData_rm$kWithin)) > 0)
summary(hubData_rm$kWithin)

    Min.  1st Qu.   Median     Mean  3rd Qu.     Max.     NA's 
  0.0308   2.7032  11.3365  44.8646  50.3950 535.9272     3489 

hubList_rm <- hubData_rm %>%
  group_by(module) %>%
  arrange(desc(kWithin)) %>%
  slice_head(n = 10) %>%
  ungroup()

print(hubList_rm)

# A tibble: 160 × 20
   gene    module  MMpink    MMred MMblack MMbrown   MMblue  MMtan MMcyan
   <chr>   <chr>    <dbl>    <dbl>   <dbl>   <dbl>    <dbl>  <dbl>  <dbl>
 1 SCP2    black  -0.130   0.0478    0.874   0.736 -0.0222  -0.489 -0.271
 2 A1CF    black  -0.180  -0.0488    0.852   0.573 -0.0840  -0.467 -0.354
 3 DEPDC7  black  -0.101   0.138     0.871   0.766  0.133   -0.403 -0.368
 4 EHHADH  black  -0.0671  0.0849    0.825   0.702 -0.0894  -0.446 -0.330
 5 ACADM   black  -0.145   0.0293    0.826   0.667  0.0336  -0.475 -0.204
 6 DBT     black  -0.220  -0.0617    0.860   0.667 -0.115   -0.587 -0.242
 7 PIK3R1  black  -0.234  -0.00867   0.827   0.606  0.0156  -0.372 -0.305
 8 MUT     black  -0.168   0.0564    0.831   0.664  0.00657 -0.430 -0.238
 9 PUS10   black  -0.229  -0.0748    0.816   0.560 -0.0411  -0.502 -0.171
10 FAM82A1 black  -0.105   0.0885    0.825   0.675  0.0736  -0.409 -0.345
# ℹ 150 more rows
# ℹ 11 more variables: MMmidnightblue <dbl>, MMgreenyellow <dbl>,
#   MMgreen <dbl>, MMyellow <dbl>, MMpurple <dbl>, MMmagenta <dbl>,
#   MMsalmon <dbl>, MMturquoise <dbl>, MMgrey <dbl>, GS <dbl>, kWithin <dbl>
…
